5 中級編後半 | データエンジニアリング人材養成演習補助教材
…
企業コード, year, 従業員数の3つのカラムを選択

企業コードとyearでソート

long_emp_l <-
  long_data %>% 
  select(企業コード, 
         year,
         従業員数) %>% 
  arrange(企業コード, year)

long_emp_l

# A tibble: 14,972 x 3
   企業コード year  従業員数
   <chr>      <chr>    <dbl>
 1 B02111302  2012      1254
 2 B02111302  2013       768
 3 B02111302  2014      1242
 4 B02111302  2015      1409
 5 B02111302  2016       728
 6 B02111302  2017      1401
 7 B02111302  2018      1096
 8 B02117802  2012        82
 9 B02117802  2013       376
10 B02117802  2014       374
# ... with 14,962 more rows
…
long_emp_w <-
  wide_data %>% 
  select(企業コード,
      contains("従業員数")) %>%
  pivot_longer(
    cols = -企業コード,
    names_to = "year", 
    values_to = "従業員数",
    names_prefix="従業員数_")%>%
  arrange(企業コード, year)

long_emp_w

# A tibble: 15,232 x 3
   企業コード year  従業員数
   <chr>      <chr>    <dbl>
 1 B02111302  2012      1254
 2 B02111302  2013       768
 3 B02111302  2014      1242
 4 B02111302  2015      1409
 5 B02111302  2016       728
 6 B02111302  2017      1401
 7 B02111302  2018      1096
 8 B02117802  2012        82
 9 B02117802  2013       376
10 B02117802  2014       374
# ... with 15,222 more rows
…
データを一致させるために、「2012年から2018年までの7年ぶんのレコードがすべて存在するデータ」という条件で絞って再度検証してみましょう

5.3.8 条件を揃える準備

7年ぶんのレコードが揃っている企業コードを抽出します

code_7year <-
  long_emp_l %>%
  group_by(企業コード) %>%
  count() %>%
  filter(n == 7) %>% 
  ungroup() 
# グループ解除(参考参照)

# A tibble: 1,788 x 2
   企業コード     n
   <chr>      <int>
 1 B02111302      7
 2 B02117802      7
 3 B02122250      7
 4 B02122602      7
 5 B02125529      7
 6 B02128716      7
 7 B02129789      7
 8 B02153443      7
 9 B02505784      7
10 B02514384      7
# ... with 1,778 more rows
…
No issues were found!

5.3.10 参考：グループ解除

group_byを使ってグループ化されたデータは、ungroupするまでグループ化が継続されます

code_7year_g <-
  long_emp_l %>%
  group_by(企業コード) %>%
  count() %>%
  filter(n == 7) 
code_7year_g

# A tibble: 1,788 x 2
# Groups:   企業コード [1,788]
   企業コード     n
   <chr>      <int>
 1 B02111302      7
 2 B02117802      7
 3 B02122250      7
 4 B02122602      7
 5 B02125529      7
 6 B02128716      7
 7 B02129789      7
 8 B02153443      7
 9 B02505784      7
10 B02514384      7
# ... with 1,778 more rows

code_7year_ug <-
  long_emp_l %>%
  group_by(企業コード) %>%
  count() %>%
  filter(n == 7) %>% 
  ungroup()
code_7year_ug

# A tibble: 1,788 x 2
   企業コード     n
   <chr>      <int>
 1 B02111302      7
 2 B02117802      7
 3 B02122250      7
 4 B02122602      7
 5 B02125529      7
 6 B02128716      7
 7 B02129789      7
 8 B02153443      7
 9 B02505784      7
10 B02514384      7
# ... with 1,778 more rows

group化されたデータに対してjoinをしても、group化は勝手に解除されることはないので注意しましょう

group化が残っていると、意図せぬに挙動になることがままあります

code_7year_g %>%
  left_join(long_emp_l,
            by="企業コード")

# A tibble: 12,516 x 4
# Groups:   企業コード [1,788]
   企業コード     n year  従業員数
   <chr>      <int> <chr>    <dbl>
 1 B02111302      7 2012      1254
 2 B02111302      7 2013       768
 3 B02111302      7 2014      1242
 4 B02111302      7 2015      1409
 5 B02111302      7 2016       728
 6 B02111302      7 2017      1401
 7 B02111302      7 2018      1096
 8 B02117802      7 2012        82
 9 B02117802      7 2013       376
10 B02117802      7 2014       374
# ... with 12,506 more rows

code_7year_ug %>%
  left_join(long_emp_l,
            by="企業コード")

# A tibble: 12,516 x 4
   企業コード     n year  従業員数
   <chr>      <int> <chr>    <dbl>
 1 B02111302      7 2012      1254
 2 B02111302      7 2013       768
 3 B02111302      7 2014      1242
 4 B02111302      7 2015      1409
 5 B02111302      7 2016       728
 6 B02111302      7 2017      1401
 7 B02111302      7 2018      1096
 8 B02117802      7 2012        82
 9 B02117802      7 2013       376
10 B02117802      7 2014       374
# ... with 12,506 more rows
…
従業員数に注目したタテ持ちデータのlong_emp_lをlong_empとして使用します。

long_emp <- long_emp_l

5.4.3 手順１：データのソート

前年比算出準備として企業コードとyearでソートします

ソートすることでカラム間の差分が計算できるからです

long_emp <- long_emp %>% 
  arrange(企業コード, year)
long_emp

# A tibble: 12,516 x 3
   企業コード year  従業員数
   <chr>      <chr>    <dbl>
 1 B02111302  2012      1254
 2 B02111302  2013       768
 3 B02111302  2014      1242
 4 B02111302  2015      1409
 5 B02111302  2016       728
 6 B02111302  2017      1401
 7 B02111302  2018      1096
 8 B02117802  2012        82
 9 B02117802  2013       376
10 B02117802  2014       374
# ... with 12,506 more rows

5.4.4 手順２：前年従業員数の作成

企業コードごとに前年従業員数カラムを作成します

lag関数は指定したベクトルを前にnずらす関数です

long_emp <- long_emp %>%
  group_by(企業コード) %>% 
  mutate(前年従業員数 = lag(従業員数, n = 1))
long_emp

# A tibble: 12,516 x 4
# Groups:   企業コード [1,788]
   企業コード year  従業員数 前年従業員数
   <chr>      <chr>    <dbl>        <dbl>
 1 B02111302  2012      1254           NA
 2 B02111302  2013       768         1254
 3 B02111302  2014      1242          768
 4 B02111302  2015      1409         1242
 5 B02111302  2016       728         1409
 6 B02111302  2017      1401          728
 7 B02111302  2018      1096         1401
 8 B02117802  2012        82           NA
 9 B02117802  2013       376           82
10 B02117802  2014       374          376
# ... with 12,506 more rows

5.4.5 手順３：前年度比算出

従業員数伸び率カラムを作成します

long_emp <- long_emp %>% 
  mutate(従業員数伸び率 =
      if_else(前年従業員数 <= 0 | 従業員数 <= 0,
              as.double(NA), 従業員数 / 前年従業員数))
long_emp

# A tibble: 12,516 x 5
# Groups:   企業コード [1,788]
   企業コード year  従業員数 前年従業員数 従業員数伸び率
   <chr>      <chr>    <dbl>        <dbl>          <dbl>
 1 B02111302  2012      1254           NA         NA    
 2 B02111302  2013       768         1254          0.612
 3 B02111302  2014      1242          768          1.62 
 4 B02111302  2015      1409         1242          1.13 
 5 B02111302  2016       728         1409          0.517
 6 B02111302  2017      1401          728          1.92 
 7 B02111302  2018      1096         1401          0.782
 8 B02117802  2012        82           NA         NA    
 9 B02117802  2013       376           82          4.59 
10 B02117802  2014       374          376          0.995
# ... with 12,506 more rows

5.4.6 手順４：見栄えを整える

従業員数伸び率を小数点以下3桁にまるめ、中間変数である前年従業員数を消去します

long_emp <- long_emp %>% 
  ungroup() %>% # group化はもう不要なのでgroupを解除します
  mutate(従業員数伸び率 = round(従業員数伸び率, 3)) %>% 
  select(-前年従業員数) 
long_emp

# A tibble: 12,516 x 4
   企業コード year  従業員数 従業員数伸び率
   <chr>      <chr>    <dbl>          <dbl>
 1 B02111302  2012      1254         NA    
 2 B02111302  2013       768          0.612
 3 B02111302  2014      1242          1.62 
 4 B02111302  2015      1409          1.13 
 5 B02111302  2016       728          0.517
 6 B02111302  2017      1401          1.92 
 7 B02111302  2018      1096          0.782
 8 B02117802  2012        82         NA    
 9 B02117802  2013       376          4.58 
10 B02117802  2014       374          0.995
# ... with 12,506 more rows
…
5.5 データの可視化

データの理解を深めるために必須のスキルです

ggplot2の基礎を習得します

5.5.1 なぜデータを可視化するのか

要約統計量のみではデータの理解が困難だからです

データ研磨においても、データ分析においても、データを可視化しながら作業を進めるのが一般的です

long_emp

# A tibble: 12,516 x 4
   企業コード year  従業員数 従業員数伸び率
   <chr>      <chr>    <dbl>          <dbl>
 1 B02111302  2012      1254         NA    
 2 B02111302  2013       768          0.612
 3 B02111302  2014      1242          1.62 
 4 B02111302  2015      1409          1.13 
 5 B02111302  2016       728          0.517
 6 B02111302  2017      1401          1.92 
 7 B02111302  2018      1096          0.782
 8 B02117802  2012        82         NA    
 9 B02117802  2013       376          4.58 
10 B02117802  2014       374          0.995
# ... with 12,506 more rows
…
5.5.8 facetの前に

ここまで可視化してきたものは、2012年から2018年のデータを分け隔てなく一枚のプロットに描画していました

facetは年別などのグループ比較をするために使います

long_emp

# A tibble: 12,516 x 4
   企業コード year  従業員数 従業員数伸び率
   <chr>      <chr>    <dbl>          <dbl>
 1 B02111302  2012      1254         NA    
 2 B02111302  2013       768          0.612
 3 B02111302  2014      1242          1.62 
 4 B02111302  2015      1409          1.13 
 5 B02111302  2016       728          0.517
 6 B02111302  2017      1401          1.92 
 7 B02111302  2018      1096          0.782
 8 B02117802  2012        82         NA    
 9 B02117802  2013       376          4.58 
10 B02117802  2014       374          0.995
# ... with 12,506 more rows
…
5.6 ランキングの作成

データから知見を得ましょう

5.6.1 結果の確認

データを可視化してデータの概要は掴めました

次はデータから有益な情報を得るために、従業員数データであるlong_empからランキングを作成しましょう

ここでは業種別に従業員数伸び率ランキングを作成します

# A tibble: 1,667 x 4
   企業コード 従業員数伸び率 業種大分類_2018  rank
   <chr>               <dbl> <chr>           <int>
 1 F62151343           4.22  A:農業              1
 2 J30067647           0.598 D:鉱業              1
 3 J34531369           0.41  D:鉱業              2
 4 J34080260           0.269 D:鉱業              3
 5 J34809061           0.189 D:鉱業              4
 6 J34787560          15.9   E:建設業            1
 7 F12124685           8.63  E:建設業            2
 8 J34599205           6.34  E:建設業            3
 9 F82182754           4.49  E:建設業            4
10 J34598664           3.52  E:建設業            5
# ... with 1,657 more rows
…
      500
      8
      8
      5

5.6.4 手順１：2017年の従業員数が100人以上

2017年の従業員数が100人以上という条件でfilterをかけると、2018年のデータも消えてしまいます

long_emp %>% 
  filter(year == "2017", 従業員数 >= 100) %>% 
  arrange(desc(year))

# A tibble: 1,667 x 4
   企業コード year  従業員数 従業員数伸び率
   <chr>      <chr>    <dbl>          <dbl>
 1 B02111302  2017      1401          1.92 
 2 B02117802  2017       233          0.552
 3 B02122250  2017       523          1.76 
 4 B02122602  2017      7564          0.445
 5 B02125529  2017      2274          1.03 
 6 B02128716  2017       261          0.798
 7 B02129789  2017       645          0.591
 8 B02153443  2017      3960          1.10 
 9 B02505784  2017       902          1.81 
10 B02514384  2017       154          0.647
# ... with 1,657 more rows
…
条件抽出したデータをemp_growth_rank_2018とします

emp_growth_rank_2018 <-
  long_emp %>%
  filter(year == "2017", 
         従業員数 >= 100) %>%
  select(企業コード) %>% 
  left_join(long_emp,
            by = "企業コード") %>% 
  # 以降は2018年のデータのみでよい
  filter(year == "2018")

emp_growth_rank_2018

# A tibble: 1,667 x 4
   企業コード year  従業員数 従業員数伸び率
   <chr>      <chr>    <dbl>          <dbl>
 1 B02111302  2018      1096          0.782
 2 B02117802  2018       173          0.742
 3 B02122250  2018       695          1.33 
 4 B02122602  2018     12493          1.65 
 5 B02125529  2018      2472          1.09 
 6 B02128716  2018       376          1.44 
 7 B02129789  2018       986          1.53 
 8 B02153443  2018      5563          1.40 
 9 B02505784  2018       728          0.807
10 B02514384  2018       324          2.10 
# ... with 1,657 more rows

5.6.5 手順２：業種大分類をjoin

業種大分類はdata_2018とjoinすることで付与します

emp_growth_rank_2018 <- emp_growth_rank_2018 %>% 
  left_join(data_list$data_2018 %>%
              select("企業コード", contains("業種大分類")),
            by = "企業コード")
emp_growth_rank_2018 %>% 
  relocate("企業コード", contains("業種大分類"))

# A tibble: 1,667 x 5
   企業コード 業種大分類_2018      year  従業員数 従業員数伸び率
   <chr>      <chr>                <chr>    <dbl>          <dbl>
 1 B02111302  F:製造業             2018      1096          0.782
 2 B02117802  G:卸売・小売業，飲食 2018       173          0.742
 3 B02122250  F:製造業             2018       695          1.33 
 4 B02122602  J:運輸・通信業       2018     12493          1.65 
 5 B02125529  F:製造業             2018      2472          1.09 
 6 B02128716  F:製造業             2018       376          1.44 
 7 B02129789  G:卸売・小売業，飲食 2018       986          1.53 
 8 B02153443  G:卸売・小売業，飲食 2018      5563          1.40 
 9 B02505784  F:製造業             2018       728          0.807
10 B02514384  F:製造業             2018       324          2.10 
# ... with 1,657 more rows
…
emp_growth_rank_2018 <-
  emp_growth_rank_2018 %>% 
  group_by(業種大分類_2018) %>% 
  mutate(rank = min_rank(desc(従業員数伸び率))) %>% 
  arrange(業種大分類_2018, rank) %>% 
  select(-従業員数, -year) %>% 
  ungroup()

5.6.7 ランキングデータ完成

2017年の従業員数が100人以上の企業で、業種ごとに従業員数伸び率ランキングを作成したデータが完成しました

emp_growth_rank_2018

# A tibble: 1,667 x 4
   企業コード 従業員数伸び率 業種大分類_2018  rank
   <chr>               <dbl> <chr>           <int>
 1 F62151343           4.22  A:農業              1
 2 J30067647           0.598 D:鉱業              1
 3 J34531369           0.41  D:鉱業              2
 4 J34080260           0.269 D:鉱業              3
 5 J34809061           0.189 D:鉱業              4
 6 J34787560          15.9   E:建設業            1
 7 F12124685           8.63  E:建設業            2
 8 J34599205           6.34  E:建設業            3
 9 F82182754           4.49  E:建設業            4
10 J34598664           3.52  E:建設業            5
# ... with 1,657 more rows
…
