3 初級編後半 | データエンジニアリング人材養成演習補助教材
…
substrという関数名は、sub string（部分文字列）に由来します。

3.2.3 都道府県コードカラムの新設

それではmutateとsubstrを使って都道府県コードのカラムを新設しましょう

都道府県コードは、本社所在地市区郡の頭2文字です

カラムを追加したデータをdata_2とします

data_2 <- data_1 %>% 
  mutate(都道府県コード = substr(本社所在地市区郡, 1, 2))
data_2 %>% relocate(都道府県コード, 本社所在地市区郡)

# A tibble: 887 x 8
   都道府県コード 本社所在地市区郡 企業コード 業種大分類 `資本金(千円)`
   <chr>          <chr>            <chr>      <chr>               <dbl>
 1 13             13103_東京都港区 J31299770  I:不動産業         931300
 2 27             27123_大阪府大阪市淀川区~ E32002046  L:サービス業~        1098300
 3 13             13103_東京都港区 D42585413  J:運輸・通信業~        6120900
 4 13             13101_東京都千代田区~ J39971897  L:サービス業~       15432800
 5 14             14102_神奈川県横浜市神奈~ J93122775  F:製造業          9904900
 6 13             13111_東京都大田区~ J34719839  F:製造業         27761400
 7 23             23105_愛知県名古屋市中村~ L12571447  G:卸売・小売業，~         131800
 8 13             13103_東京都港区 D42395106  G:卸売・小売業，~        1523000
 9 13             13103_東京都港区 J34594067  E:建設業          8297700
10 27             27126_大阪府大阪市平野区~ E32304350  F:製造業           458000
# ... with 877 more rows, and 3 more variables: 従業員数 <dbl>,
#   `最新期業績売上高(百万円)` <dbl>, `最新期業績税引後利益(千円)` <dbl>

3.3 ステップ８：マスタの結合

rename

left_join

3.3.1 作業内容

data_2に、「都道府県マスタ」データを、都道府県コードをキーとして結合します

data_2

# A tibble: 887 x 8
   都道府県コード 企業コード 本社所在地市区郡 業種大分類 `資本金(千円)`
   <chr>          <chr>      <chr>            <chr>               <dbl>
 1 13             J31299770  13103_東京都港区 I:不動産業         931300
 2 27             E32002046  27123_大阪府大阪市淀川区~ L:サービス業~        1098300
 3 13             D42585413  13103_東京都港区 J:運輸・通信業~        6120900
 4 13             J39971897  13101_東京都千代田区~ L:サービス業~       15432800
 5 14             J93122775  14102_神奈川県横浜市神奈~ F:製造業          9904900
 6 13             J34719839  13111_東京都大田区~ F:製造業         27761400
 7 23             L12571447  23105_愛知県名古屋市中村~ G:卸売・小売業，~         131800
 8 13             D42395106  13103_東京都港区 G:卸売・小売業，~        1523000
 9 13             J34594067  13103_東京都港区 E:建設業          8297700
10 27             E32304350  27126_大阪府大阪市平野区~ F:製造業           458000
# ... with 877 more rows, and 3 more variables: 従業員数 <dbl>,
#   `最新期業績売上高(百万円)` <dbl>, `最新期業績税引後利益(千円)` <dbl>

都道府県マスタ

# A tibble: 47 x 2
   都道府県CODE 都道府県名
   <chr>        <chr>     
 1 01           北海道    
 2 02           青森県    
 3 03           岩手県    
 4 04           宮城県    
 5 05           秋田県    
 6 06           山形県    
 7 07           福島県    
 8 08           茨城県    
 9 09           栃木県    
10 10           群馬県    
# ... with 37 more rows
…
3.4 ステップ９：文字列の結合

paste

3.4.1 作業内容

data_3に「都道府県」カラムを新設します

都道府県カラムは、都道府県コードと都道府県名の間に「_」を入れた「01_北海道」のようなデータです

文字列を結合する方法がわかればmutateでできます

したがって、まずは文字列の結合方法を説明します

# A tibble: 887 x 10
   都道府県 都道府県コード 都道府県名 企業コード 本社所在地市区郡 業種大分類
   <chr>    <chr>          <chr>      <chr>      <chr>            <chr>     
 1 13_東京都~ 13             東京都     J31299770  13103_東京都港区 I:不動産業
 2 27_大阪府~ 27             大阪府     E32002046  27123_大阪府大阪市淀川区~ L:サービス業~
 3 13_東京都~ 13             東京都     D42585413  13103_東京都港区 J:運輸・通信業~
 4 13_東京都~ 13             東京都     J39971897  13101_東京都千代田区~ L:サービス業~
 5 14_神奈川県~ 14             神奈川県   J93122775  14102_神奈川県横浜市神奈~ F:製造業  
 6 13_東京都~ 13             東京都     J34719839  13111_東京都大田区~ F:製造業  
 7 23_愛知県~ 23             愛知県     L12571447  23105_愛知県名古屋市中村~ G:卸売・小売業，~
 8 13_東京都~ 13             東京都     D42395106  13103_東京都港区 G:卸売・小売業，~
 9 13_東京都~ 13             東京都     J34594067  13103_東京都港区 E:建設業  
10 27_大阪府~ 27             大阪府     E32304350  27126_大阪府大阪市平野区~ F:製造業  
# ... with 877 more rows, and 4 more variables: `資本金(千円)` <dbl>,
#   従業員数 <dbl>, `最新期業績売上高(百万円)` <dbl>,
#   `最新期業績税引後利益(千円)` <dbl>
…
[1] "神奈川県横浜市緑区"

3.4.3 都道府県カラムの作成

都道府県カラムは、都道府県コードと都道府県名の間に「_」を入れた「01_北海道」のようなデータです

都道府県カラムを追加したデータをdata_4とします

data_4 <- data_3 %>% 
  mutate(都道府県 = paste(都道府県コード, 都道府県名,
                            sep = "_"))
data_4 %>% relocate(都道府県, 都道府県コード, 都道府県名) 

# A tibble: 887 x 10
   都道府県 都道府県コード 都道府県名 企業コード 本社所在地市区郡 業種大分類
   <chr>    <chr>          <chr>      <chr>      <chr>            <chr>     
 1 13_東京都~ 13             東京都     J31299770  13103_東京都港区 I:不動産業
 2 27_大阪府~ 27             大阪府     E32002046  27123_大阪府大阪市淀川区~ L:サービス業~
 3 13_東京都~ 13             東京都     D42585413  13103_東京都港区 J:運輸・通信業~
 4 13_東京都~ 13             東京都     J39971897  13101_東京都千代田区~ L:サービス業~
 5 14_神奈川県~ 14             神奈川県   J93122775  14102_神奈川県横浜市神奈~ F:製造業  
 6 13_東京都~ 13             東京都     J34719839  13111_東京都大田区~ F:製造業  
 7 23_愛知県~ 23             愛知県     L12571447  23105_愛知県名古屋市中村~ G:卸売・小売業，~
 8 13_東京都~ 13             東京都     D42395106  13103_東京都港区 G:卸売・小売業，~
 9 13_東京都~ 13             東京都     J34594067  13103_東京都港区 E:建設業  
10 27_大阪府~ 27             大阪府     E32304350  27126_大阪府大阪市平野区~ F:製造業  
# ... with 877 more rows, and 4 more variables: `資本金(千円)` <dbl>,
#   従業員数 <dbl>, `最新期業績売上高(百万円)` <dbl>,
#   `最新期業績税引後利益(千円)` <dbl>
…
3.5 ステップ１０：指標の作成

mutate

3.5.1 作業内容

指標として売上高利益率を算出します

売上高利益率の計算は、(利益÷売上高)×100です

利益と売上高の単位が揃っていないことに注意します

利益率はround関数で少数点以下2桁にします

# A tibble: 887 x 11
   売上高利益率 `最新期業績税引後利益(千円)~ `最新期業績売上高(百万円)`~ 企業コード 本社所在地市区郡
          <dbl>            <dbl>            <dbl> <chr>      <chr>           
 1        13.9            910536             6555 J31299770  13103_東京都港区
 2      1776.            1775694              100 E32002046  27123_大阪府大阪市淀川区~
 3         1.29           408523            31746 D42585413  13103_東京都港区
 4         0.76          2544502           334093 J39971897  13101_東京都千代田区~
 5         1.1            763986            69308 J93122775  14102_神奈川県横浜市神奈~
 6        58.4          31954410            54667 J34719839  13111_東京都大田区~
 7         6.93          7455793           107643 L12571447  23105_愛知県名古屋市中村~
 8         2.11          1387429            65714 D42395106  13103_東京都港区
 9         3.39          2149032            63388 J34594067  13103_東京都港区
10         1.32           530833            40125 E32304350  27126_大阪府大阪市平野区~
# ... with 877 more rows, and 6 more variables: 業種大分類 <chr>,
#   `資本金(千円)` <dbl>, 従業員数 <dbl>, 都道府県コード <chr>,
#   都道府県名 <chr>, 都道府県 <chr>

3.5.2 売上高利益率カラムの作成

売上高利益率カラムを追加したものをdata_5とします

data_5 <- data_4 %>% 
  mutate(売上高利益率 =
    `最新期業績税引後利益(千円)`/(`最新期業績売上高(百万円)`*1000)*100) %>% 
  mutate(売上高利益率 = round(売上高利益率, 2))
data_5 %>% relocate(売上高利益率, `最新期業績税引後利益(千円)`, `最新期業績売上高(百万円)`)

# A tibble: 887 x 11
   売上高利益率 `最新期業績税引後利益(千円)~ `最新期業績売上高(百万円)`~ 企業コード 本社所在地市区郡
          <dbl>            <dbl>            <dbl> <chr>      <chr>           
 1        13.9            910536             6555 J31299770  13103_東京都港区
 2      1776.            1775694              100 E32002046  27123_大阪府大阪市淀川区~
 3         1.29           408523            31746 D42585413  13103_東京都港区
 4         0.76          2544502           334093 J39971897  13101_東京都千代田区~
 5         1.1            763986            69308 J93122775  14102_神奈川県横浜市神奈~
 6        58.4          31954410            54667 J34719839  13111_東京都大田区~
 7         6.93          7455793           107643 L12571447  23105_愛知県名古屋市中村~
 8         2.11          1387429            65714 D42395106  13103_東京都港区
 9         3.39          2149032            63388 J34594067  13103_東京都港区
10         1.32           530833            40125 E32304350  27126_大阪府大阪市平野区~
# ... with 877 more rows, and 6 more variables: 業種大分類 <chr>,
#   `資本金(千円)` <dbl>, 従業員数 <dbl>, 都道府県コード <chr>,
#   都道府県名 <chr>, 都道府県 <chr>
…
したがって、最後の条件は無条件にTRUEとすることがあります

3.6.6 従業員数レンジカラム作成(if_else)

if_elseの場合は、条件式に偽となった値にさらに条件分岐をかけることで、条件分岐の階層構造を作ります

data_5 %>%
  mutate(従業員数レンジ = 
    if_else(   0 <= 従業員数 & 従業員数 <= 500, "01_500人以下",
    if_else( 500 <= 従業員数 & 従業員数 <= 1000, "02_1000人以下",
    if_else(1000 <= 従業員数, "03_1000人超", "99_不明")))) %>% 
  relocate(従業員数レンジ, 従業員数)

# A tibble: 887 x 12
   従業員数レンジ 従業員数 企業コード 本社所在地市区郡 業種大分類
   <chr>             <dbl> <chr>      <chr>            <chr>     
 1 01_500人以下         64 J31299770  13103_東京都港区 I:不動産業
 2 03_1000人超        1120 E32002046  27123_大阪府大阪市淀川区~ L:サービス業~
 3 01_500人以下        216 D42585413  13103_東京都港区 J:運輸・通信業~
 4 03_1000人超       31059 J39971897  13101_東京都千代田区~ L:サービス業~
 5 01_500人以下        314 J93122775  14102_神奈川県横浜市神奈~ F:製造業  
 6 03_1000人超        1167 J34719839  13111_東京都大田区~ F:製造業  
 7 02_1000人以下       880 L12571447  23105_愛知県名古屋市中村~ G:卸売・小売業，~
 8 03_1000人超        1555 D42395106  13103_東京都港区 G:卸売・小売業，~
 9 01_500人以下        452 J34594067  13103_東京都港区 E:建設業  
10 02_1000人以下       801 E32304350  27126_大阪府大阪市平野区~ F:製造業  
# ... with 877 more rows, and 7 more variables: `資本金(千円)` <dbl>,
#   `最新期業績売上高(百万円)` <dbl>, `最新期業績税引後利益(千円)` <dbl>,
#   都道府県コード <chr>, 都道府県名 <chr>, 都道府県 <chr>,
#   売上高利益率 <dbl>
…
3.7 ステップ１２：ソート

arrange

3.7.1 作業内容

データをソートをします

はじめに都道府県で昇順ソートをし、

つぎに都道府県内での従業員数レンジで昇順ソートをし、

さいごに上記のうちから売上高利益率で降順ソートします

# A tibble: 887 x 12
   都道府県 従業員数レンジ 売上高利益率 企業コード 本社所在地市区郡 業種大分類
   <chr>    <chr>                 <dbl> <chr>      <chr>            <chr>     
 1 01_北海道~ 01_500人以下          3.41  G92668203  01104_北海道札幌市白石区~ G:卸売・小売業，~
 2 01_北海道~ 01_500人以下          0.49  G92515950  01105_北海道札幌市豊平区~ F:製造業  
 3 01_北海道~ 02_1000人以下         5.05  G22109363  01203_北海道小樽市~ J:運輸・通信業~
 4 01_北海道~ 02_1000人以下         3.18  G92543356  01101_北海道札幌市中央区~ E:建設業  
 5 01_北海道~ 02_1000人以下         0.570 G92412006  01101_北海道札幌市中央区~ G:卸売・小売業，~
 6 02_青森県~ 01_500人以下          0.96  H02154711  02202_青森県弘前市~ G:卸売・小売業，~
 7 02_青森県~ 02_1000人以下         0.45  H92112963  02203_青森県八戸市~ G:卸売・小売業，~
 8 04_宮城県~ 01_500人以下          3.77  H42536370  04102_宮城県仙台市宮城野~ G:卸売・小売業，~
 9 04_宮城県~ 01_500人以下          0.86  H42053936  04104_宮城県仙台市太白区~ G:卸売・小売業，~
10 04_宮城県~ 02_1000人以下         9.45  H42127369  04102_宮城県仙台市宮城野~ G:卸売・小売業，~
# ... with 877 more rows, and 6 more variables: `資本金(千円)` <dbl>,
#   従業員数 <dbl>, `最新期業績売上高(百万円)` <dbl>,
#   `最新期業績税引後利益(千円)` <dbl>, 都道府県コード <chr>,
#   都道府県名 <chr>

3.7.2 arrangeでソート

ソートしたいカラムをarrangeの引数に指定します

デフォルトは昇順で、desc関数で降順になります

data_6 %>% # 昇順
  arrange(都道府県) %>%
  relocate(都道府県)

# A tibble: 887 x 12
   都道府県 企業コード 本社所在地市区郡 業種大分類 `資本金(千円)` 従業員数
   <chr>    <chr>      <chr>            <chr>               <dbl>    <dbl>
 1 01_北海道~ G22109363  01203_北海道小樽市~ J:運輸・通信業~        1590700      807
 2 01_北海道~ G92412006  01101_北海道札幌市中央区~ G:卸売・小売業，~        1748600      606
 3 01_北海道~ G92515950  01105_北海道札幌市豊平区~ F:製造業           399000      435
 4 01_北海道~ G92543356  01101_北海道札幌市中央区~ E:建設業           252800      903
 5 01_北海道~ G92668203  01104_北海道札幌市白石区~ G:卸売・小売業，~        9316300      455
 6 02_青森県~ H02154711  02202_青森県弘前市~ G:卸売・小売業，~        1247000      288
 7 02_青森県~ H92112963  02203_青森県八戸市~ G:卸売・小売業，~        4006200      571
 8 04_宮城県~ H42150036  04101_宮城県仙台市青葉区~ K:電気・ガス・水~      418451700     5308
 9 04_宮城県~ H42127369  04102_宮城県仙台市宮城野~ G:卸売・小売業，~        1065600      892
10 04_宮城県~ H42536370  04102_宮城県仙台市宮城野~ G:卸売・小売業，~              1      303
# ... with 877 more rows, and 6 more variables:
#   `最新期業績売上高(百万円)` <dbl>, `最新期業績税引後利益(千円)` <dbl>,
#   都道府県コード <chr>, 都道府県名 <chr>, 売上高利益率 <dbl>,
#   従業員数レンジ <chr>

data_6 %>% # 降順
  arrange(desc(都道府県))%>%
  relocate(都道府県)

# A tibble: 887 x 12
   都道府県 企業コード 本社所在地市区郡 業種大分類 `資本金(千円)` 従業員数
   <chr>    <chr>      <chr>            <chr>               <dbl>    <dbl>
 1 47_沖縄県~ J42113831  47208_沖縄県浦添市~ K:電気・ガス・水~       11473100     1823
 2 46_鹿児島県~ C72124439  46201_鹿児島県鹿児島市~ F:製造業           307700      551
 3 45_宮崎県~ C32118312  45202_宮崎県都城市~ G:卸売・小売業，~        1362500      300
 4 43_熊本県~ C82153425  43105_熊本県熊本市北区~ F:製造業          3261100     1649
 5 40_福岡県~ C42110360  40132_福岡県福岡市博多区~ L:サービス業~        2198900      194
 6 40_福岡県~ C42151200  40133_福岡県福岡市中央区~ E:建設業          2535100      211
 7 40_福岡県~ C92114080  40106_福岡県北九州市小倉~ G:卸売・小売業，~        8148900      457
 8 40_福岡県~ C92180151  40109_福岡県北九州市八幡~ F:製造業         26955300     2463
 9 40_福岡県~ C92532200  40109_福岡県北九州市八幡~ L:サービス業~          95400      538
10 40_福岡県~ C42151408  40134_福岡県福岡市南区~ E:建設業          2698300    11268
# ... with 877 more rows, and 6 more variables:
#   `最新期業績売上高(百万円)` <dbl>, `最新期業績税引後利益(千円)` <dbl>,
#   都道府県コード <chr>, 都道府県名 <chr>, 売上高利益率 <dbl>,
#   従業員数レンジ <chr>

3.7.3 複数カラムでソート

都道府県で昇順ソートし、都道府県内で売上高利益率を降順ソートする場合は以下のように書きます

data_6 %>% arrange(都道府県, desc(売上高利益率))

ソート前

# A tibble: 887 x 12
   都道府県 売上高利益率 企業コード 本社所在地市区郡 業種大分類 `資本金(千円)`
   <chr>           <dbl> <chr>      <chr>            <chr>               <dbl>
 1 13_東京都~        13.9  J31299770  13103_東京都港区 I:不動産業         931300
 2 27_大阪府~      1776.   E32002046  27123_大阪府大阪市淀川区~ L:サービス業~        1098300
 3 13_東京都~         1.29 D42585413  13103_東京都港区 J:運輸・通信業~        6120900
 4 13_東京都~         0.76 J39971897  13101_東京都千代田区~ L:サービス業~       15432800
 5 14_神奈川県~         1.1  J93122775  14102_神奈川県横浜市神奈~ F:製造業          9904900
 6 13_東京都~        58.4  J34719839  13111_東京都大田区~ F:製造業         27761400
 7 23_愛知県~         6.93 L12571447  23105_愛知県名古屋市中村~ G:卸売・小売業，~         131800
 8 13_東京都~         2.11 D42395106  13103_東京都港区 G:卸売・小売業，~        1523000
 9 13_東京都~         3.39 J34594067  13103_東京都港区 E:建設業          8297700
10 27_大阪府~         1.32 E32304350  27126_大阪府大阪市平野区~ F:製造業           458000
# ... with 877 more rows, and 6 more variables: 従業員数 <dbl>,
#   `最新期業績売上高(百万円)` <dbl>, `最新期業績税引後利益(千円)` <dbl>,
#   都道府県コード <chr>, 都道府県名 <chr>, 従業員数レンジ <chr>

ソート後

# A tibble: 887 x 12
   都道府県 売上高利益率 企業コード 本社所在地市区郡 業種大分類 `資本金(千円)`
   <chr>           <dbl> <chr>      <chr>            <chr>               <dbl>
 1 01_北海道~        5.05  G22109363  01203_北海道小樽市~ J:運輸・通信業~        1590700
 2 01_北海道~        3.41  G92668203  01104_北海道札幌市白石区~ G:卸売・小売業，~        9316300
 3 01_北海道~        3.18  G92543356  01101_北海道札幌市中央区~ E:建設業           252800
 4 01_北海道~        0.570 G92412006  01101_北海道札幌市中央区~ G:卸売・小売業，~        1748600
 5 01_北海道~        0.49  G92515950  01105_北海道札幌市豊平区~ F:製造業           399000
 6 02_青森県~        0.96  H02154711  02202_青森県弘前市~ G:卸売・小売業，~        1247000
 7 02_青森県~        0.45  H92112963  02203_青森県八戸市~ G:卸売・小売業，~        4006200
 8 04_宮城県~        9.45  H42127369  04102_宮城県仙台市宮城野~ G:卸売・小売業，~        1065600
 9 04_宮城県~        4.93  H42150249  04102_宮城県仙台市宮城野~ E:建設業         14733200
10 04_宮城県~        4.45  H42150036  04101_宮城県仙台市青葉区~ K:電気・ガス・水~      418451700
# ... with 877 more rows, and 6 more variables: 従業員数 <dbl>,
#   `最新期業績売上高(百万円)` <dbl>, `最新期業績税引後利益(千円)` <dbl>,
#   都道府県コード <chr>, 都道府県名 <chr>, 従業員数レンジ <chr>

では3つの組み合わせでソートしましょう

都道府県で昇順、従業員数レンジで昇順、売上高利益率で降順の順番で組み合わせてソートします

ソートしたデータをdata_7とします

data_7 <- data_6 %>%
  arrange(都道府県, 従業員数レンジ, desc(売上高利益率))
data_7 %>% relocate(都道府県, 従業員数レンジ, 売上高利益率)

# A tibble: 887 x 12
   都道府県 従業員数レンジ 売上高利益率 企業コード 本社所在地市区郡 業種大分類
   <chr>    <chr>                 <dbl> <chr>      <chr>            <chr>     
 1 01_北海道~ 01_500人以下          3.41  G92668203  01104_北海道札幌市白石区~ G:卸売・小売業，~
 2 01_北海道~ 01_500人以下          0.49  G92515950  01105_北海道札幌市豊平区~ F:製造業  
 3 01_北海道~ 02_1000人以下         5.05  G22109363  01203_北海道小樽市~ J:運輸・通信業~
 4 01_北海道~ 02_1000人以下         3.18  G92543356  01101_北海道札幌市中央区~ E:建設業  
 5 01_北海道~ 02_1000人以下         0.570 G92412006  01101_北海道札幌市中央区~ G:卸売・小売業，~
 6 02_青森県~ 01_500人以下          0.96  H02154711  02202_青森県弘前市~ G:卸売・小売業，~
 7 02_青森県~ 02_1000人以下         0.45  H92112963  02203_青森県八戸市~ G:卸売・小売業，~
 8 04_宮城県~ 01_500人以下          3.77  H42536370  04102_宮城県仙台市宮城野~ G:卸売・小売業，~
 9 04_宮城県~ 01_500人以下          0.86  H42053936  04104_宮城県仙台市太白区~ G:卸売・小売業，~
10 04_宮城県~ 02_1000人以下         9.45  H42127369  04102_宮城県仙台市宮城野~ G:卸売・小売業，~
# ... with 877 more rows, and 6 more variables: `資本金(千円)` <dbl>,
#   従業員数 <dbl>, `最新期業績売上高(百万円)` <dbl>,
#   `最新期業績税引後利益(千円)` <dbl>, 都道府県コード <chr>,
#   都道府県名 <chr>
…
group_by

summarise

3.8.1 作業内容

group_byとsummariseでの集計方法を習得します

data_7 %>% 
  group_by(都道府県, 従業員数レンジ) %>% 
  summarise(count = n(),         sum = sum(従業員数),
            mean = mean(従業員数), max = max(従業員数))

# A tibble: 83 x 6
# Groups:   都道府県 [38]
   都道府県  従業員数レンジ count   sum  mean   max
   <chr>     <chr>          <int> <dbl> <dbl> <dbl>
 1 01_北海道 01_500人以下       2   890  445    455
 2 01_北海道 02_1000人以下      3  2316  772    903
 3 02_青森県 01_500人以下       1   288  288    288
 4 02_青森県 02_1000人以下      1   571  571    571
 5 04_宮城県 01_500人以下       2   471  236.   303
 6 04_宮城県 02_1000人以下      1   892  892    892
 7 04_宮城県 03_1000人超        2 10454 5227   5308
 8 07_福島県 01_500人以下       1   192  192    192
 9 08_茨城県 02_1000人以下      1   525  525    525
10 08_茨城県 03_1000人超        2  4315 2158.  2463
# ... with 73 more rows
3.8.2 group_byとsummariseでの集計方法

ここでは都道府県ごとにグループ化して、都道府県ごとの従業員数の平均値を算出します

group_byの引数にグループ化する変数を与えます

summariseはmutateと同様に書き、集計値を算出します

data_7 %>% 
  group_by(都道府県) %>%
  summarise(
   従業員数平均=mean(従業員数)
    )

# A tibble: 38 x 2
   都道府県  従業員数平均
 * <chr>            <dbl>
 1 01_北海道         641.
 2 02_青森県         430.
 3 04_宮城県        2363.
 4 07_福島県         192 
 5 08_茨城県        1613.
 6 09_栃木県         178 
 7 10_群馬県        1118.
 8 11_埼玉県         928.
 9 12_千葉県         873.
10 13_東京都        1545.
# ... with 28 more rows

3.8.3 複数カラムでグループ集計

group_byの引数にカラム名を複数与えることで、複数グループでの集計ができるようになります

# 都道府県かつ従業員数レンジごとに従業員数平均を算出
data_7 %>% 
  group_by(都道府県, 従業員数レンジ) %>% 
  summarise(従業員数平均 = mean(従業員数))

# A tibble: 83 x 3
# Groups:   都道府県 [38]
   都道府県  従業員数レンジ 従業員数平均
   <chr>     <chr>                 <dbl>
 1 01_北海道 01_500人以下           445 
 2 01_北海道 02_1000人以下          772 
 3 02_青森県 01_500人以下           288 
 4 02_青森県 02_1000人以下          571 
 5 04_宮城県 01_500人以下           236.
 6 04_宮城県 02_1000人以下          892 
 7 04_宮城県 03_1000人超           5227 
 8 07_福島県 01_500人以下           192 
 9 08_茨城県 02_1000人以下          525 
10 08_茨城県 03_1000人超           2158.
# ... with 73 more rows

3.8.4 参考１：mutateとの違い

mutateでは既存のtibbleに対してグループ集計値が格納されるので、同じ値が複数行に入ります

data_7 %>% group_by(都道府県, 従業員数レンジ) %>% 
  mutate(従業員数平均 = mean(従業員数)) %>% 
  relocate(都道府県, 従業員数レンジ, 従業員数平均, 従業員数)

# A tibble: 887 x 13
# Groups:   都道府県, 従業員数レンジ [83]
   都道府県 従業員数レンジ 従業員数平均 従業員数 企業コード 本社所在地市区郡
   <chr>    <chr>                 <dbl>    <dbl> <chr>      <chr>           
 1 01_北海道~ 01_500人以下           445       455 G92668203  01104_北海道札幌市白石区~
 2 01_北海道~ 01_500人以下           445       435 G92515950  01105_北海道札幌市豊平区~
 3 01_北海道~ 02_1000人以下          772       807 G22109363  01203_北海道小樽市~
 4 01_北海道~ 02_1000人以下          772       903 G92543356  01101_北海道札幌市中央区~
 5 01_北海道~ 02_1000人以下          772       606 G92412006  01101_北海道札幌市中央区~
 6 02_青森県~ 01_500人以下           288       288 H02154711  02202_青森県弘前市~
 7 02_青森県~ 02_1000人以下          571       571 H92112963  02203_青森県八戸市~
 8 04_宮城県~ 01_500人以下           236.      303 H42536370  04102_宮城県仙台市宮城野~
 9 04_宮城県~ 01_500人以下           236.      168 H42053936  04104_宮城県仙台市太白区~
10 04_宮城県~ 02_1000人以下          892       892 H42127369  04102_宮城県仙台市宮城野~
# ... with 877 more rows, and 7 more variables: 業種大分類 <chr>,
#   `資本金(千円)` <dbl>, `最新期業績売上高(百万円)` <dbl>,
#   `最新期業績税引後利益(千円)` <dbl>, 都道府県コード <chr>,
#   都道府県名 <chr>, 売上高利益率 <dbl>

3.8.5 参考２：グループごとのレコード数を集計

summariseでn()を用いてレコード数を集計できます

n()はsummariseの中で使える特殊な関数です

data_7 %>% group_by(都道府県) %>% summarise(count = n())

# A tibble: 887 x 12
   都道府県 企業コード 本社所在地市区郡 業種大分類 `資本金(千円)` 従業員数
   <chr>    <chr>      <chr>            <chr>               <dbl>    <dbl>
 1 01_北海道~ G92668203  01104_北海道札幌市白石区~ G:卸売・小売業，~        9316300      455
 2 01_北海道~ G92515950  01105_北海道札幌市豊平区~ F:製造業           399000      435
 3 01_北海道~ G22109363  01203_北海道小樽市~ J:運輸・通信業~        1590700      807
 4 01_北海道~ G92543356  01101_北海道札幌市中央区~ E:建設業           252800      903
 5 01_北海道~ G92412006  01101_北海道札幌市中央区~ G:卸売・小売業，~        1748600      606
 6 02_青森県~ H02154711  02202_青森県弘前市~ G:卸売・小売業，~        1247000      288
 7 02_青森県~ H92112963  02203_青森県八戸市~ G:卸売・小売業，~        4006200      571
 8 04_宮城県~ H42536370  04102_宮城県仙台市宮城野~ G:卸売・小売業，~              1      303
 9 04_宮城県~ H42053936  04104_宮城県仙台市太白区~ G:卸売・小売業，~        1966400      168
10 04_宮城県~ H42127369  04102_宮城県仙台市宮城野~ G:卸売・小売業，~        1065600      892
# ... with 877 more rows, and 6 more variables:
#   `最新期業績売上高(百万円)` <dbl>, `最新期業績税引後利益(千円)` <dbl>,
#   都道府県コード <chr>, 都道府県名 <chr>, 売上高利益率 <dbl>,
#   従業員数レンジ <chr>
…
