2 初級編前半 | データエンジニアリング人材養成演習補助教材
…
read_csvの引数の説明は2頁先ににまとめてあります

カラム型を指定しないときは、カラム型をある程度自動識別し、読み込んだカラム型のメッセージが出ます

df_1 <- read_csv(file = here("input/企業リスト1.csv"),
                 locale = locale(encoding = "shift-jis"))
df_1

-- Column specification ------------------------------------------------------
cols(
  企業コード = col_character()
)

# A tibble: 500 x 1
   企業コード
   <chr>     
 1 J31299770 
 2 E32002046 
 3 D42585413 
 4 J39971897 
 5 J93122775 
 6 J34719839 
 7 L12571447 
 8 D42395106 
 9 J34594067 
10 E32304350 
# ... with 490 more rows

同様にして企業リスト2.csvも読み込みます

ここではカラム型の指定も行っています

df_2 <- read_csv(file = here("input/企業リスト2.csv"),
                 locale = locale(encoding = "shift-jis"),
                 col_types = "c")
# これでも可 col_types = cols(企業コード = col_character())
df_2

# A tibble: 500 x 1
   企業コード
   <chr>     
 1 J38109080 
 2 D42631600 
 3 H42150036 
 4 E32060947 
 5 B02122602 
 6 J34020161 
 7 J34747662 
 8 J34830369 
 9 E32572710 
10 J34109464 
# ... with 490 more rows
…
2.1.6 glimpseでデータを見る

カラム数が多いときは、コンソールでデータを表示しても、全てのカラムを確認することができません

c2_201901

# A tibble: 2,111 x 11
   企業コード 本社所在地市区郡 業種大分類 `資本金(千円)` 従業員数
   <chr>      <chr>            <chr>               <dbl>    <dbl>
 1 G92155635  01103_北海道札幌市東区~ G:卸売・小売業，~         862800      114
 2 G92155065  13113_東京都渋谷区~ H:金融・保険業~        3997800     2270
 3 G92143569  01104_北海道札幌市白石区~ G:卸売・小売業，~         830800      627
 4 G92141220  01101_北海道札幌市中央区~ E:建設業           981800      194
 5 G92190707  01109_北海道札幌市手稲区~ G:卸売・小売業，~         419100      267
 6 G92515950  01105_北海道札幌市豊平区~ F:製造業           399000      435
 7 G92508571  27128_大阪府大阪市中央区~ F:製造業         53879600      745
 8 G92559088  01101_北海道札幌市中央区~ K:電気・ガス・水~       27874600     7207
 9 G92552130  01104_北海道札幌市白石区~ E:建設業          3275400     1409
10 G92557890  01110_北海道札幌市清田区~ F:製造業          3815700      295
# ... with 2,101 more rows, and 6 more variables: 最新期業績決算期年 <dbl>,
#   最新期業績決算期月 <dbl>, `最新期業績売上高(百万円)` <dbl>,
#   `最新期業績税引後利益(千円)` <dbl>, 創業年 <dbl>, 設立年 <dbl>
…
Rでは()付きカラムはバッククォートで囲むようにしてください

コンソールでの表示もバッククォートが付いているのがわかります

2.2 ステップ２：データの縦結合

bind_rows

2.2.1 作業内容

ステップ1で読み込んだ以下の2つのデータを縦に結合して1つのデータにします

df_1

# A tibble: 500 x 1
   企業コード
   <chr>     
 1 J31299770 
 2 E32002046 
 3 D42585413 
 4 J39971897 
 5 J93122775 
 6 J34719839 
 7 L12571447 
 8 D42395106 
 9 J34594067 
10 E32304350 
# ... with 490 more rows

df_2

# A tibble: 500 x 1
   企業コード
   <chr>     
 1 J38109080 
 2 D42631600 
 3 H42150036 
 4 E32060947 
 5 B02122602 
 6 J34020161 
 7 J34747662 
 8 J34830369 
 9 E32572710 
10 J34109464 
# ... with 490 more rows

2.2.2 bind_rowsでデータの縦(行)結合

結合したいデータをbind_rowsの引数に与えることで、データを縦結合することができます

df_1とdf_2を縦結合したデータをdf_3とします

df_3 <- bind_rows(df_1, df_2)
df_3

# A tibble: 1,000 x 1
   企業コード
   <chr>     
 1 J31299770 
 2 E32002046 
 3 D42585413 
 4 J39971897 
 5 J93122775 
 6 J34719839 
 7 L12571447 
 8 D42395106 
 9 J34594067 
10 E32304350 
# ... with 990 more rows

2.2.3 参考１：３つ以上のデータの縦結合

3つ以上のデータを縦結合したい場合も、2つの場合と同様にして引数に渡します

bind_rows(df_1, df_2, df_3)

# A tibble: 2,000 x 1
   企業コード
   <chr>     
 1 J31299770 
 2 E32002046 
 3 D42585413 
 4 J39971897 
 5 J93122775 
 6 J34719839 
 7 L12571447 
 8 D42395106 
 9 J34594067 
10 E32304350 
# ... with 1,990 more rows
…
# A tibble: 2 x 3
  col_1 col_2 col_3
  <dbl> <dbl> <dbl>
1     1     1    NA
2    NA     2     2

2.2.5 参考３：データの横（列）結合

縦結合と同様にbind_colsでデータを横(列)結合できます

カラム名が重複すると、カラムの識別がつくようにカラム名が自動的に変更されます

bind_cols(df_1, df_2) 

# A tibble: 500 x 2
   企業コード...1 企業コード...2
   <chr>          <chr>         
 1 J31299770      J38109080     
 2 E32002046      D42631600     
 3 D42585413      H42150036     
 4 J39971897      E32060947     
 5 J93122775      B02122602     
 6 J34719839      J34020161     
 7 L12571447      J34747662     
 8 D42395106      J34830369     
 9 J34594067      E32572710     
10 E32304350      J34109464     
# ... with 490 more rows
…
2.3 ステップ３：レコードの重複消去

n_distinct

distinct

2.3.1 作業内容

企業コードを縦結合したデータには、重複しているレコードがあります

重複レコードの数を調べて重複レコードを消去します

縦結合したデータdf_3で重複している企業コード

# A tibble: 226 x 1
   企業コード
   <chr>     
 1 B02122602 
 2 B02122602 
 3 B42124422 
 4 B42124422 
 5 B42539783 
 6 B42539783 
 7 B42588245 
 8 B42588245 
 9 C62177407 
10 C62177407 
# ... with 216 more rows
…
変数を選択したデータをc2_201901_selectedとします

c2_201901_selected <- c2_201901 %>%
  select("企業コード",
         "本社所在地市区郡",
         "業種大分類",
         "従業員数",
         `最新期業績売上高(百万円)`,
         `最新期業績税引後利益(千円)`)
c2_201901_selected

# A tibble: 2,111 x 6
   企業コード 本社所在地市区郡 業種大分類 従業員数 `最新期業績売上高(百万円)`~
   <chr>      <chr>            <chr>         <dbl>            <dbl>
 1 G92155635  01103_北海道札幌市東区~ G:卸売・小売業，~      114            19509
 2 G92155065  13113_東京都渋谷区~ H:金融・保険業~     2270           127123
 3 G92143569  01104_北海道札幌市白石区~ G:卸売・小売業，~      627            35949
 4 G92141220  01101_北海道札幌市中央区~ E:建設業        194              100
 5 G92190707  01109_北海道札幌市手稲区~ G:卸売・小売業，~      267            42211
 6 G92515950  01105_北海道札幌市豊平区~ F:製造業        435            18093
 7 G92508571  27128_大阪府大阪市中央区~ F:製造業        745            82001
 8 G92559088  01101_北海道札幌市中央区~ K:電気・ガス・水~     7207              100
 9 G92552130  01104_北海道札幌市白石区~ E:建設業       1409            23288
10 G92557890  01110_北海道札幌市清田区~ F:製造業        295            61249
# ... with 2,101 more rows, and 1 more variable:
#   `最新期業績税引後利益(千円)` <dbl>
…
2.5 ステップ５：データの横結合

left_join

2.5.1 作業内容

ステップ3と4で作成した以下の2つのデータを、企業コードをキーにして結合(joinやmergeとも言う)します

df_3_distinct

# A tibble: 887 x 1
   企業コード
   <chr>     
 1 J31299770 
 2 E32002046 
 3 D42585413 
 4 J39971897 
 5 J93122775 
 6 J34719839 
 7 L12571447 
 8 D42395106 
 9 J34594067 
10 E32304350 
# ... with 877 more rows

c2_201901_selected

# A tibble: 2,111 x 7
   企業コード 本社所在地市区郡 業種大分類 `資本金(千円)` 従業員数
   <chr>      <chr>            <chr>               <dbl>    <dbl>
 1 G92155635  01103_北海道札幌市東区~ G:卸売・小売業，~         862800      114
 2 G92155065  13113_東京都渋谷区~ H:金融・保険業~        3997800     2270
 3 G92143569  01104_北海道札幌市白石区~ G:卸売・小売業，~         830800      627
 4 G92141220  01101_北海道札幌市中央区~ E:建設業           981800      194
 5 G92190707  01109_北海道札幌市手稲区~ G:卸売・小売業，~         419100      267
 6 G92515950  01105_北海道札幌市豊平区~ F:製造業           399000      435
 7 G92508571  27128_大阪府大阪市中央区~ F:製造業         53879600      745
 8 G92559088  01101_北海道札幌市中央区~ K:電気・ガス・水~       27874600     7207
 9 G92552130  01104_北海道札幌市白石区~ E:建設業          3275400     1409
10 G92557890  01110_北海道札幌市清田区~ F:製造業          3815700      295
# ... with 2,101 more rows, and 2 more variables:
#   `最新期業績売上高(百万円)` <dbl>, `最新期業績税引後利益(千円)` <dbl>
…
left_joinでは第一引数の行を全て保持します

第二引数の行は、キーが第一引数と一致した行のみ残します

第二引数のカラムは、キーが一致しない場合NAとなります

2.5.4 結合する方法を決める

df_3_distinctの企業コードに対してc2のデータを紐づけたいので、ここではleft_joinを使って結合します

df_3_distinct

# A tibble: 887 x 1
   企業コード
   <chr>     
 1 J31299770 
 2 E32002046 
 3 D42585413 
 4 J39971897 
 5 J93122775 
 6 J34719839 
 7 L12571447 
 8 D42395106 
 9 J34594067 
10 E32304350 
# ... with 877 more rows

c2_201901_selected 

# A tibble: 2,111 x 7
   企業コード 本社所在地市区郡 業種大分類 `資本金(千円)` 従業員数
   <chr>      <chr>            <chr>               <dbl>    <dbl>
 1 G92155635  01103_北海道札幌市東区~ G:卸売・小売業，~         862800      114
 2 G92155065  13113_東京都渋谷区~ H:金融・保険業~        3997800     2270
 3 G92143569  01104_北海道札幌市白石区~ G:卸売・小売業，~         830800      627
 4 G92141220  01101_北海道札幌市中央区~ E:建設業           981800      194
 5 G92190707  01109_北海道札幌市手稲区~ G:卸売・小売業，~         419100      267
 6 G92515950  01105_北海道札幌市豊平区~ F:製造業           399000      435
 7 G92508571  27128_大阪府大阪市中央区~ F:製造業         53879600      745
 8 G92559088  01101_北海道札幌市中央区~ K:電気・ガス・水~       27874600     7207
 9 G92552130  01104_北海道札幌市白石区~ E:建設業          3275400     1409
10 G92557890  01110_北海道札幌市清田区~ F:製造業          3815700      295
# ... with 2,101 more rows, and 2 more variables:
#   `最新期業績売上高(百万円)` <dbl>, `最新期業績税引後利益(千円)` <dbl>
…
