1 導入編 | データエンジニアリング人材養成演習補助教材
…
dat_tb

# A tibble: 50 x 1
       x
   <int>
 1     1
 2     2
 3     3
 4     4
 5     5
 6     6
 7     7
 8     8
 9     9
10    10
# ... with 40 more rows
…
