4 中級編前半 | データエンジニアリング人材養成演習補助教材
…
先にタテ結合、次にヨコ結合の説明をします

4.6 複数データのタテ結合

タテ結合を実装します

4.6.1 タテ結合結果

結合の際にyearカラムを新設することがポイントです

企業コード, yearの順でソートして表示しています

# A tibble: 14,972 x 12
   企業コード  year 従業員数 本社所在地市区郡 業種大分類 `資本金(千円)`
   <chr>      <int>    <dbl> <chr>            <chr>               <dbl>
 1 B02111302   2012     1254 34208_広島県府中市~ F:製造業         11722300
 2 B02111302   2013      768 34208_広島県府中市~ F:製造業          9907700
 3 B02111302   2014     1242 34208_広島県府中市~ F:製造業          6616800
 4 B02111302   2015     1409 34208_広島県府中市~ F:製造業          7218100
 5 B02111302   2016      728 34208_広島県府中市~ F:製造業         17733300
 6 B02111302   2017     1401 34208_広島県府中市~ F:製造業          7440100
 7 B02111302   2018     1096 34208_広島県府中市~ F:製造業          6818500
 8 B02117802   2012       82 34207_広島県福山市~ G:卸売・小売業，~        3556300
 9 B02117802   2013      376 34207_広島県福山市~ G:卸売・小売業，~        1777200
10 B02117802   2014      374 34207_広島県福山市~ G:卸売・小売業，~        3568300
# ... with 14,962 more rows, and 6 more variables: 最新期業績決算期年 <dbl>,
#   最新期業績決算期月 <dbl>, `最新期業績売上高(百万円)` <dbl>,
#   `最新期業績税引後利益(千円)` <dbl>, 創業年 <dbl>, 設立年 <dbl>
…
yearカラムの作成実装（１つ）

まずは2012年のデータのみで実装してみましょう

コードの汎用性を高めるために、yearカラムの値はdata_listの要素名からとってきます

data_year <- names(data_list)[1] %>% substr(6, 9)
data_list[["data_2012"]] <-
  data_list[["data_2012"]] %>% mutate(year = data_year) 
data_list[["data_2012"]] %>% relocate(year) # データ確認

# A tibble: 2,176 x 12
   year  企業コード 本社所在地市区郡 業種大分類 `資本金(千円)` 従業員数
   <chr> <chr>      <chr>            <chr>               <dbl>    <dbl>
 1 2012  G92155635  01103_北海道札幌市東区~ G:卸売・小売業，~        1419800      197
 2 2012  G92155065  13113_東京都渋谷区~ H:金融・保険業~        8462000     1418
 3 2012  G92143569  01104_北海道札幌市白石区~ G:卸売・小売業，~         370700      535
 4 2012  G92190707  01101_北海道札幌市中央区~ G:卸売・小売業，~         639200      694
 5 2012  G92515950  01105_北海道札幌市豊平区~ F:製造業          1958700      840
 6 2012  G92508571  27128_大阪府大阪市中央区~ F:製造業         30041600     1436
 7 2012  G92559088  01101_北海道札幌市中央区~ K:電気・ガス・水~       83595900     2814
 8 2012  G92552130  01104_北海道札幌市白石区~ E:建設業          2577500     2145
 9 2012  G92557890  01110_北海道札幌市清田区~ F:製造業          4217000      461
10 2012  G92556303  01101_北海道札幌市中央区~ K:電気・ガス・水~        3913100      769
# ... with 2,166 more rows, and 6 more variables: 最新期業績決算期年 <dbl>,
#   最新期業績決算期月 <dbl>, `最新期業績売上高(百万円)` <dbl>,
#   `最新期業績税引後利益(千円)` <dbl>, 創業年 <dbl>, 設立年 <dbl>
…
4.6.4 2. bind_rowsでタテ結合

data_listを直接bind_rows関数にかけるだけで、listに入っているデータをすべてタテ結合することができます

タテ結合したデータをlong_dataとします

long_data <- data_list %>% bind_rows()
long_data %>% relocate(year) %>% arrange(企業コード, year)

# A tibble: 14,972 x 12
   year  企業コード 本社所在地市区郡 業種大分類 `資本金(千円)` 従業員数
   <chr> <chr>      <chr>            <chr>               <dbl>    <dbl>
 1 2012  B02111302  34208_広島県府中市~ F:製造業         11722300     1254
 2 2013  B02111302  34208_広島県府中市~ F:製造業          9907700      768
 3 2014  B02111302  34208_広島県府中市~ F:製造業          6616800     1242
 4 2015  B02111302  34208_広島県府中市~ F:製造業          7218100     1409
 5 2016  B02111302  34208_広島県府中市~ F:製造業         17733300      728
 6 2017  B02111302  34208_広島県府中市~ F:製造業          7440100     1401
 7 2018  B02111302  34208_広島県府中市~ F:製造業          6818500     1096
 8 2012  B02117802  34207_広島県福山市~ G:卸売・小売業，~        3556300       82
 9 2013  B02117802  34207_広島県福山市~ G:卸売・小売業，~        1777200      376
10 2014  B02117802  34207_広島県福山市~ G:卸売・小売業，~        3568300      374
# ... with 14,962 more rows, and 6 more variables: 最新期業績決算期年 <dbl>,
#   最新期業績決算期月 <dbl>, `最新期業績売上高(百万円)` <dbl>,
#   `最新期業績税引後利益(千円)` <dbl>, 創業年 <dbl>, 設立年 <dbl>
…
4.7 複数データのヨコ結合

ヨコ結合を実装します

4.7.1 ヨコ結合結果

カラム名の重複を避けるためとyear情報を保持するために、カラム名にyear情報を付与する部分がポイントです

# A tibble: 2,176 x 71
   企業コード 業種大分類_2012 業種大分類_2013 業種大分類_2014 業種大分類_2015 業種大分類_2016 業種大分類_2017 業種大分類_2018
   <chr>      <chr>           <chr>           <chr>           <chr>           <chr>           <chr>           <chr>          
 1 G92155635  G:卸売・小売業，飲食~ G:卸売・小売業，飲食~ G:卸売・小売業，飲食~ G:卸売・小売業，飲食~ G:卸売・小売業，飲食~ G:卸売・小売業，飲食~ G:卸売・小売業，飲食~
 2 G92155065  H:金融・保険業  H:金融・保険業  H:金融・保険業  H:金融・保険業  H:金融・保険業  H:金融・保険業  H:金融・保険業 
 3 G92143569  G:卸売・小売業，飲食~ G:卸売・小売業，飲食~ G:卸売・小売業，飲食~ G:卸売・小売業，飲食~ G:卸売・小売業，飲食~ G:卸売・小売業，飲食~ G:卸売・小売業，飲食~
 4 G92190707  G:卸売・小売業，飲食~ G:卸売・小売業，飲食~ G:卸売・小売業，飲食~ G:卸売・小売業，飲食~ G:卸売・小売業，飲食~ G:卸売・小売業，飲食~ G:卸売・小売業，飲食~
 5 G92515950  F:製造業        F:製造業        F:製造業        F:製造業        F:製造業        F:製造業        F:製造業       
 6 G92508571  F:製造業        F:製造業        F:製造業        F:製造業        F:製造業        F:製造業        F:製造業       
 7 G92559088  K:電気・ガス・水道・~ K:電気・ガス・水道・~ K:電気・ガス・水道・~ K:電気・ガス・水道・~ K:電気・ガス・水道・~ K:電気・ガス・水道・~ K:電気・ガス・水道・~
 8 G92552130  E:建設業        E:建設業        E:建設業        E:建設業        E:建設業        E:建設業        E:建設業       
 9 G92557890  F:製造業        F:製造業        F:製造業        F:製造業        F:製造業        F:製造業        F:製造業       
10 G92556303  K:電気・ガス・水道・~ K:電気・ガス・水道・~ K:電気・ガス・水道・~ K:電気・ガス・水道・~ K:電気・ガス・水道・~ K:電気・ガス・水道・~ K:電気・ガス・水道・~
# ... with 2,166 more rows, and 63 more variables: 最新期業績決算期月_2012 <dbl>, 最新期業績決算期月_2013 <dbl>,
#   最新期業績決算期月_2014 <dbl>, 最新期業績決算期月_2015 <dbl>, 最新期業績決算期月_2016 <dbl>, 最新期業績決算期月_2017 <dbl>,
#   最新期業績決算期月_2018 <dbl>, 最新期業績決算期年_2012 <dbl>, 最新期業績決算期年_2013 <dbl>, 最新期業績決算期年_2014 <dbl>,
#   最新期業績決算期年_2015 <dbl>, 最新期業績決算期年_2016 <dbl>, 最新期業績決算期年_2017 <dbl>, 最新期業績決算期年_2018 <dbl>,
#   `最新期業績税引後利益(千円)_2012` <dbl>, `最新期業績税引後利益(千円)_2013` <dbl>, `最新期業績税引後利益(千円)_2014` <dbl>,
#   `最新期業績税引後利益(千円)_2015` <dbl>, `最新期業績税引後利益(千円)_2016` <dbl>, `最新期業績税引後利益(千円)_2017` <dbl>,
#   `最新期業績税引後利益(千円)_2018` <dbl>, `最新期業績売上高(百万円)_2012` <dbl>, `最新期業績売上高(百万円)_2013` <dbl>,
#   `最新期業績売上高(百万円)_2014` <dbl>, `最新期業績売上高(百万円)_2015` <dbl>, `最新期業績売上高(百万円)_2016` <dbl>,
#   `最新期業績売上高(百万円)_2017` <dbl>, `最新期業績売上高(百万円)_2018` <dbl>, `資本金(千円)_2012` <dbl>, `資本金(千円)_2013` <dbl>,
…
実装と確認

wide_data <- data_list[["data_2012"]] %>% select(企業コード)
for (data in data_list) {
  wide_data <- wide_data %>%
    left_join(data, by = "企業コード")
}
wide_data

# A tibble: 2,176 x 71
   企業コード 本社所在地市区郡_2012~ 業種大分類_2012 `資本金(千円)_2012`~ 従業員数_2012
   <chr>      <chr>            <chr>                      <dbl>         <dbl>
 1 G92155635  01103_北海道札幌市東区~ G:卸売・小売業，飲食~          1419800           197
 2 G92155065  13113_東京都渋谷区~ H:金融・保険業           8462000          1418
 3 G92143569  01104_北海道札幌市白石区~ G:卸売・小売業，飲食~           370700           535
 4 G92190707  01101_北海道札幌市中央区~ G:卸売・小売業，飲食~           639200           694
 5 G92515950  01105_北海道札幌市豊平区~ F:製造業                 1958700           840
 6 G92508571  27128_大阪府大阪市中央区~ F:製造業                30041600          1436
 7 G92559088  01101_北海道札幌市中央区~ K:電気・ガス・水道・~         83595900          2814
 8 G92552130  01104_北海道札幌市白石区~ E:建設業                 2577500          2145
 9 G92557890  01110_北海道札幌市清田区~ F:製造業                 4217000           461
10 G92556303  01101_北海道札幌市中央区~ K:電気・ガス・水道・~          3913100           769
# ... with 2,166 more rows, and 66 more variables:
#   最新期業績決算期年_2012 <dbl>, 最新期業績決算期月_2012 <dbl>,
#   `最新期業績売上高(百万円)_2012` <dbl>,
#   `最新期業績税引後利益(千円)_2012` <dbl>, 創業年_2012 <dbl>,
#   設立年_2012 <dbl>, 本社所在地市区郡_2013 <chr>, 業種大分類_2013 <chr>,
#   `資本金(千円)_2013` <dbl>, 従業員数_2013 <dbl>,
#   最新期業績決算期年_2013 <dbl>, 最新期業績決算期月_2013 <dbl>,
#   `最新期業績売上高(百万円)_2013` <dbl>,
#   `最新期業績税引後利益(千円)_2013` <dbl>, 創業年_2013 <dbl>,
…
建設的な方法

必要なデータが決まっている場合は、以下のようにして結合する変数を選択してjoinをすると建設的です

wide_emp <- data_list[["data_2012"]] %>% select(企業コード)
for (dl_name in names(data_list)) {
  wide_emp <- wide_emp %>% 
    left_join(
      data_list[[dl_name]] %>% # containsは後ほど解説
        select(企業コード, contains("従業員数")),
      by = "企業コード")
}
wide_emp

# A tibble: 2,176 x 8
   企業コード 従業員数_2012 従業員数_2013 従業員数_2014 従業員数_2015
   <chr>              <dbl>         <dbl>         <dbl>         <dbl>
 1 G92155635            197            45           241           194
 2 G92155065           1418          2049          3632          2615
 3 G92143569            535            13           611           471
 4 G92190707            694           960           778           566
 5 G92515950            840           722           783           794
 6 G92508571           1436           737          1472          1062
 7 G92559088           2814         10884          3735          7194
 8 G92552130           2145          2772          1568          1465
 9 G92557890            461           556           555           674
10 G92556303            769           201           770           413
# ... with 2,166 more rows, and 3 more variables: 従業員数_2016 <dbl>,
#   従業員数_2017 <dbl>, 従業員数_2018 <dbl>
…
